{
    "app-id": "org.oolite.Oolite",
    "runtime": "org.freedesktop.Platform",
    "runtime-version": "1.6",
    "sdk": "org.freedesktop.Sdk",
    "command": "oolite",
    "modules": [
        {
            "name": "oolitesrc",
            "buildsystem": "simple",
            "build-commands": [
                "tar --strip-components=2 -xf oolite.tar -C /app"
            ],
			"cleanup": [
				"uninstall"
			],
            "sources": [
                {
                    "type": "file",
                    "path": "oolite.tar"
                }
            ]
        },
		{
		    "name": "icons",
		    "buildsystem": "simple",
		    "build-commands": [
		        "install -Dm644 icon48.png /app/share/icons/hicolor/48x48/apps/org.oolite.Oolite.png",
		        "install -Dm644 icon64.png /app/share/icons/hicolor/64x64/apps/org.oolite.Oolite.png",
		        "install -Dm644 icon128.png /app/share/icons/hicolor/128x128/apps/org.oolite.Oolite.png",
		        "install -Dm644 icon256.png /app/share/icons/hicolor/256x256/apps/org.oolite.Oolite.png"
		    ],
		    "sources": [
		        {
		            "type": "file",
		            "path": "icon48.png"
		        },
		        {
		            "type": "file",
		            "path": "icon64.png"
		        },
		        {
		            "type": "file",
		            "path": "icon128.png"
		        },
		        {
		            "type": "file",
		            "path": "icon256.png"
		        }
		    ]
		},
		{
			"name": "appdata",
			"buildsystem": "simple",
			"build-commands": [
				"install -Dm644 appdata /app/share/metainfo/org.oolite.Oolite.appdata.xml"
			],
			"sources": [
				{
					"type": "file",
					"path": "appdata"
				}
			]
		},
		{
		    "name": "desktop",
		    "buildsystem": "simple",
		    "build-commands": [
		        "install -Dm644 org.oolite.Oolite.desktop /app/share/applications/org.oolite.Oolite.desktop"
		    ],
		    "sources": [
		        {
		            "type": "file",
		            "path": "org.oolite.Oolite.desktop"
		        }
		    ]
		},
		{
			"name": "startscript",
			"buildsystem": "simple",
			"build-commands": [
				"install -Dm755 start.sh /app/bin/oolite"
			],
			"sources": [
				{
					"type": "file",
					"path": "start.sh"
				}
			]
		},
		{
          "name": "glu",
          "sources": [
            {
              "type": "archive",
              "url": "https://mesa.freedesktop.org/archive/glu/glu-9.0.0.tar.bz2",
              "sha256": "1f7ad0d379a722fcbd303aa5650c6d7d5544fde83196b42a73d1193568a4df12"
            }
          ],
          "cleanup": [ "/include", "/lib/*.a", "/lib/*.la", "/lib/pkgconfig" ]
        }
    ],
	"finish-args": [
	   "--socket=x11",
	   "--share=network",
	   "--share=ipc",
	   "--filesystem=home",
	   "--socket=wayland",
	   "--device=dri",
	   "--socket=pulseaudio"
	]
}
